{
    "name": "hpp-predictor-16992235121",
    "nodeId": "hpp-predictor-16992235121",
    "nodeSolutionId": "5938301b-dcf6-493a-90ac-e286b7648f21",
    "nodeVersion": "1.0.0",
    "requirements": [
        {
            "name": "",
            "relationship": "",
            "id": "",
            "capability": {
                "name": [
                    {
                        "messageName": "Prediction",
                        "messageargumentList": [
                            {
                                "role": "",
                                "name": "salePrice",
                                "tag": "1",
                                "type": "float"
                            }
                        ]
                    }
                ],
                "stream": false,
                "id": "predict_sale_price"
            },
            "target": {
                "name": "",
                "description": ""
            },
            "target_type": "Node"
        },
        {
            "name": "",
            "relationship": "",
            "id": "",
            "capability": {
                "name": [
                    {
                        "messageName": "SharedFolderStatus",
                        "messageargumentList": [
                            {
                                "role": "",
                                "name": "success",
                                "tag": "1",
                                "type": "bool"
                            }
                        ]
                    }
                ],
                "stream": false,
                "id": "mountVolume"
            },
            "target": {
                "name": "",
                "description": ""
            },
            "target_type": "Node"
        }
    ],
    "type": {
        "name": "MLModel"
    },
    "capabilities": [
        {
            "id": "",
            "name": "",
            "target": {
                "name": [
                    {
                        "messageName": "Features",
                        "messageargumentList": [
                            {
                                "role": "",
                                "name": "MSSubClass",
                                "tag": "1",
                                "type": "float"
                            },
                            {
                                "role": "",
                                "name": "LotArea",
                                "tag": "2",
                                "type": "float"
                            },
                            {
                                "role": "",
                                "name": "YearBuilt",
                                "tag": "3",
                                "type": "float"
                            },
                            {
                                "role": "",
                                "name": "BedroomAbvGr",
                                "tag": "4",
                                "type": "float"
                            },
                            {
                                "role": "",
                                "name": "TotRmsAbvGrd",
                                "tag": "5",
                                "type": "float"
                            }
                        ]
                    }
                ],
                "stream": false,
                "id": "predict_sale_price"
            },
            "target_type": "Capability",
            "properties": null
        },
        {
            "id": "",
            "name": "",
            "target": {
                "name": [
                    {
                        "messageName": "SharedFolderRequest",
                        "messageargumentList": [
                            {
                                "role": "",
                                "name": "path",
                                "tag": "1",
                                "type": "string"
                            }
                        ]
                    }
                ],
                "stream": false,
                "id": "mountVolume"
            },
            "target_type": "Capability",
            "properties": null
        }
    ],
    "ndata": {
        "fixed": true,
        "px": 889.0894302751168,
        "py": -333.501732508106
    },
    "properties": []
}