{
    "model_name": "sentiment-analysis-classifer",
    "docker_uri": "cicd.ai4eu-dev.eu:7444/tutorials/sentiment_analysis/sa_classifier:v4",
    "category": "CL",
    "documents": [],
    "tags": {
        "modelTypeCode": "CL",
        "toolkitTypeCode": "TF",
        "tags": [
            {
                "tag": "playground"
            },
            {
                "tag": "ready"
            },
            {
                "tag": "sentiment"
            },
            {
                "tag": "analysis"
            },
            {
                "tag": "tutorial"
            },
            {
                "tag": "GUI"
            },
            {
                "tag": "sa"
            },
            {
                "tag": "classification"
            }
        ]
    },
    "icon_filename": "icon.png",
    "protobuf": "model.proto",
    "license": "license.json",
    "nodeId": "sa-class-16992235121",
    "nodeSolutionId": "d08afa31-edeb-4527-a1c4-ebeabee5bb9c"
}