{
    "pipeline_name": "training-pipeline",
    "location": "tutorials/training-pipeline",
    "models": [
        "news-classifer",
        "shared-folder-provider",
        "news-trainer",
        "tensorboard"
    ],
    "icon_filename": "icon.png",
    "tags": {
        "modelTypeCode": "CL",
        "toolkitTypeCode": "CP",
        "tags": [
            {
                "tag": "playground"
            },
            {
                "tag": "ready"
            },
            {
                "tag": "tutorial"
            },
            {
                "tag": "training"
            },
            {
                "tag": "pipeline"
            }
        ]
    },
    "add_link_params": [
	  {
	    "userId": "{self.GRAPHENE_USERID}",
	    "cid": "{pipeline.cid}",
	    "linkId": "{link_id}",
	    "sourceNodeName": "shared-folder-provider-16992235121",
	    "sourceNodeId": "shared-folder-provider-16992235121",
	    "targetNodeName": "news-classifer-16992235121",
	    "targetNodeId": "news-classifer-16992235121",
	    "sourceNodeRequirement": "provideFolder+[[{\"role\":\"\",\"tag\":\"1\",\"type\":\"string\"}]]+req0",
	    "targetNodeCapabilityName": "mountVolume+[[{\"role\":\"\",\"tag\":\"1\",\"type\":\"string\"}]]+cap2"
	  },
	  {
	    "userId": "{self.GRAPHENE_USERID}",
	    "cid": "{pipeline.cid}",
	    "linkId": "{link_id}",
	    "sourceNodeName": "shared-folder-provider-16992235121",
	    "sourceNodeId": "shared-folder-provider-16992235121",
	    "targetNodeName": "tensorboard-16992235121",
	    "targetNodeId": "tensorboard-16992235121",
	    "sourceNodeRequirement": "provideFolder+[[{\"role\":\"\",\"tag\":\"1\",\"type\":\"string\"}]]+req0",
	    "targetNodeCapabilityName": "mountVolume+[[{\"role\":\"\",\"tag\":\"1\",\"type\":\"string\"}]]+cap1"
	  },
	  {
	    "userId": "{self.GRAPHENE_USERID}",
	    "cid": "{pipeline.cid}",
	    "linkId": "{link_id}",
	    "sourceNodeName": "shared-folder-provider-16992235121",
	    "sourceNodeId": "shared-folder-provider-16992235121",
	    "targetNodeName": "news-trainer-16992235121",
	    "targetNodeId": "news-trainer-16992235121",
	    "sourceNodeRequirement": "provideFolder+[[{\"role\":\"\",\"tag\":\"1\",\"type\":\"string\"}]]+req0",
	    "targetNodeCapabilityName": "mountVolume+[[{\"role\":\"\",\"tag\":\"1\",\"type\":\"string\"}]]+cap1"
	  },
	  {
	    "userId": "{self.GRAPHENE_USERID}",
	    "cid": "{pipeline.cid}",
	    "linkId": "{link_id}",
	    "sourceNodeName": "news-trainer-16992235121",
	    "sourceNodeId": "news-trainer-16992235121",
	    "targetNodeName": "news-classifer-16992235121",
	    "targetNodeId": "news-classifer-16992235121",
	    "sourceNodeRequirement": "startTraining+[[{\"role\":\"\",\"tag\":\"1\",\"type\":\"string\"},{\"role\":\"\",\"tag\":\"2\",\"type\":\"string\"},{\"role\":\"\",\"tag\":\"3\",\"type\":\"int32\"},{\"role\":\"\",\"tag\":\"4\",\"type\":\"int32\"},{\"role\":\"\",\"tag\":\"5\",\"type\":\"double\"},{\"role\":\"\",\"tag\":\"6\",\"type\":\"string\"}]]+req0",
	    "targetNodeCapabilityName": "startTraining+[[{\"role\":\"\",\"tag\":\"1\",\"type\":\"string\"},{\"role\":\"\",\"tag\":\"2\",\"type\":\"string\"},{\"role\":\"\",\"tag\":\"3\",\"type\":\"int32\"},{\"role\":\"\",\"tag\":\"4\",\"type\":\"int32\"},{\"role\":\"\",\"tag\":\"5\",\"type\":\"double\"},{\"role\":\"\",\"tag\":\"6\",\"type\":\"string\"}]]+cap0"
	  }
	],
	"modify_node_urls":[
	  "dsce/dsce/solution/modifyNode?userid={GRAPHENE_USER_ID}&cid={COMP_SOLUTION_ID}&nodeid=shared-folder-provider-16992235121&nodename=shared-folder-provider-16992235121&ndata={\"fixed\":true,\"px\":144.15043965268833,\"py\":372.6358284715994",
	  "dsce/dsce/solution/modifyNode?userid={GRAPHENE_USER_ID}&cid={COMP_SOLUTION_ID}&nodeid=shared-folder-provider-16992235121&nodename=shared-folder-provider-16992235121&ndata={\"fixed\":false}",
	  "dsce/dsce/solution/modifyNode?userid={GRAPHENE_USER_ID}&cid={COMP_SOLUTION_ID}&nodeid=tensorboard-16992235121&nodename=tensorboard-16992235121&ndata={\"fixed\":false}",
	  "dsce/dsce/solution/modifyNode?userid={GRAPHENE_USER_ID}&cid={COMP_SOLUTION_ID}&nodeid=news-trainer-16992235121&nodename=news-trainer-16992235121&ndata={\"fixed\":false}",
	  "dsce/dsce/solution/modifyNode?userid={GRAPHENE_USER_ID}&cid={COMP_SOLUTION_ID}&nodeid=news-trainer-16992235121&nodename=news-trainer-16992235121&ndata={\"fixed\":true,\"px\":680.8559549288707,\"py\":497.9930267795064}",
	  "dsce/dsce/solution/modifyNode?userid={GRAPHENE_USER_ID}&cid={COMP_SOLUTION_ID}&nodeid=tensorboard-16992235121&nodename=tensorboard-16992235121&ndata={\"fixed\":true,\"px\":672.2913952507015,\"py\":251.99722277548597}",
	  "dsce/dsce/solution/modifyNode?userid={GRAPHENE_USER_ID}&cid={COMP_SOLUTION_ID}&nodeid=news-classifer-16992235121&nodename=news-classifer-16992235121&ndata={\"fixed\":true,\"px\":995.3411266031457,\"py\":377.5651300647519}"
	],
    "add_link_url":"dsce/dsce/solution/addLink"
}