{
    "model_name": "named-entity-recognition-databroker",
    "docker_uri": "cicd.ai4eu-dev.eu:7444/tutorials/named_entity_recognition/ner_databroker:v1",
    "category": "DS",
    "documents": [],
    "tags": {
        "modelTypeCode": "DS",
        "toolkitTypeCode": "SK",
        "tags": [
            {
                "tag": "playground"
            },
            {
                "tag": "ready"
            },
            {
                "tag": "data"
            },
            {
                "tag": "broker"
            },
            {
                "tag": "tutorial"
            },
            {
                "tag": "GUI"
            },
            {
                "tag": "ner"
            },
            {
                "tag": "named"
            },
            {
                "tag": "entity"
            },
            {
                "tag": "recognition"
            }
        ]
    },
    "icon_filename": "icon.png",
    "protobuf": "model.proto",
    "license": "license.json",
    "nodeId": "ner-db-16992235121",
    "nodeSolutionId": "e7b57150-1d35-4676-90a3-82d3e477d36a"
}